…
``` r
# retrieving information from first fold
ames_folds$splits[[1]] %>% analysis() %>% dim()
```

    ## [1] 2107   74

#### Repeated Cross validation

``` r
vfold_cv(ames_train, v = 10, repeats = 5)
```

    ## #  10-fold cross-validation repeated 5 times 
    ## # A tibble: 50 x 3
    ##    splits             id      id2   
    ##    <list>             <chr>   <chr> 
    ##  1 <split [2107/235]> Repeat1 Fold01
    ##  2 <split [2107/235]> Repeat1 Fold02
    ##  3 <split [2108/234]> Repeat1 Fold03
    ##  4 <split [2108/234]> Repeat1 Fold04
    ##  5 <split [2108/234]> Repeat1 Fold05
    ##  6 <split [2108/234]> Repeat1 Fold06
    ##  7 <split [2108/234]> Repeat1 Fold07
    ##  8 <split [2108/234]> Repeat1 Fold08
    ##  9 <split [2108/234]> Repeat1 Fold09
    ## 10 <split [2108/234]> Repeat1 Fold10
    ## # ... with 40 more rows
…
``` r
assess_res <- collect_predictions(rf_res)
assess_res
```

    ## # A tibble: 2,342 x 5
    ##    id     .pred  .row Sale_Price .config             
    ##    <chr>  <dbl> <int>      <dbl> <chr>               
    ##  1 Fold01  5.01     4       4.94 Preprocessor1_Model1
    ##  2 Fold01  5.14     5       5.11 Preprocessor1_Model1
    ##  3 Fold01  5.11     7       5.10 Preprocessor1_Model1
    ##  4 Fold01  5.13    13       4.93 Preprocessor1_Model1
    ##  5 Fold01  4.98    25       5.04 Preprocessor1_Model1
    ##  6 Fold01  5.02    38       5.04 Preprocessor1_Model1
    ##  7 Fold01  5.12    46       5.10 Preprocessor1_Model1
    ##  8 Fold01  4.99    92       4.91 Preprocessor1_Model1
    ##  9 Fold01  5.15   103       5.10 Preprocessor1_Model1
    ## 10 Fold01  5.12   108       5.09 Preprocessor1_Model1
    ## # ... with 2,332 more rows

``` r
new_df <- assess_res %>% 
  arrange(.row) %>% 
  select(.row, Sale_Price, .pred)
new_df
```

    ## # A tibble: 2,342 x 3
    ##     .row Sale_Price .pred
    ##    <int>      <dbl> <dbl>
    ##  1     1       5.10  5.01
    ##  2     2       4.98  4.99
    ##  3     3       5.02  4.99
    ##  4     4       4.94  5.01
    ##  5     5       5.11  5.14
    ##  6     6       5.08  5.11
    ##  7     7       5.10  5.11
    ##  8     8       4.83  4.99
    ##  9     9       5.05  5.16
    ## 10    10       5.09  5.11
    ## # ... with 2,332 more rows
…
``` r
# saving linear model coefficients to an object
get_model <- function(x) {
  extract_fit_parsnip(x) %>% tidy()
}

get_model(lm_fit)
```

    ## # A tibble: 72 x 5
    ##    term                             estimate  std.error statistic   p.value
    ##    <chr>                               <dbl>      <dbl>     <dbl>     <dbl>
    ##  1 (Intercept)                      1.38     0.296          4.67  3.16e-  6
    ##  2 Gr_Liv_Area                      0.000162 0.00000434    37.3   5.48e-238
    ##  3 Year_Built                       0.00185  0.000139      13.4   2.92e- 39
    ##  4 Neighborhood_College_Creek      -0.0209   0.0344        -0.609 5.43e-  1
    ##  5 Neighborhood_Old_Town           -0.0824   0.0133        -6.20  6.68e- 10
    ##  6 Neighborhood_Edwards            -0.120    0.0285        -4.21  2.65e-  5
    ##  7 Neighborhood_Somerset            0.0790   0.0195         4.06  5.12e-  5
    ##  8 Neighborhood_Northridge_Heights  0.151    0.0288         5.24  1.80e-  7
    ##  9 Neighborhood_Gilbert             0.0315   0.0225         1.40  1.62e-  1
    ## 10 Neighborhood_Sawyer             -0.122    0.0268        -4.56  5.29e-  6
    ## # ... with 62 more rows
…
